{
<<<<<<< HEAD
    "nextId": 14,
=======
    "nextId": 13,
>>>>>>> e7509f2b0aff151da44e77d68e96fd2bc06187bd
    "items": [
        {
            "id": 1,
            "name": "Nier Replicant",
            "studio": "Square Enix",
            "price": 466,
            "score": 9,
            "date": "2017-01-16/13:32:24.999"
        },
        {
            "id": 5,
            "name": "Kekw",
            "studio": "kekl",
            "price": "220",
            "score": "2",
            "date": "vchera"
        },
        {
            "id": 9,
            "name": "Nier Nier",
            "studio": "Square Enix",
            "price": 466,
            "score": 9,
            "date": "2017-01-16/13:32:24.999"
        },
        {
            "id": 10,
            "name": "Nier ",
            "studio": "Square Enix",
            "price": 466,
            "score": 9,
            "date": "2017-01-16/13:32:24.999"
<<<<<<< HEAD
        },
        {
            "id": 13,
            "name": "new ame",
            "studio": "new",
            "price": 2,
            "score": 2,
            "date": "string"
=======
>>>>>>> e7509f2b0aff151da44e77d68e96fd2bc06187bd
        }
    ]
}